# Exported from Wings 3D 1.4.1
mtllib chess_piece5.mtl
o cylinder1
#208 vertices, 194 faces
v 1.5668847e-2 3.08649521 -0.15923092
v 7.5411164e-2 3.08649521 -0.14111398
v 0.12367281 3.08649521 -0.10151372
v 0.15310640 3.08649521 -4.6458910e-2
v 0.15923092 3.08649521 1.5668847e-2
v 0.14111398 3.08649521 7.5411164e-2
v 0.10151372 3.08649521 0.12367281
v 4.6458910e-2 3.08649521 0.15310640
v -1.5668847e-2 3.08649521 0.15923092
v -7.5411164e-2 3.08649521 0.14111398
v -0.12367281 3.08649521 0.10151372
v -0.15310640 3.08649521 4.6458910e-2
v -0.15923092 3.08649521 -1.5668847e-2
v -0.14111398 3.08649521 -7.5411164e-2
v -0.10151372 3.08649521 -0.12367281
v -4.6458910e-2 3.08649521 -0.15310640
v 1.00000000 1.08649521 0.0000000e+0
v 0.92387953 1.08649521 0.38268343
v 0.70710678 1.08649521 0.70710678
v 0.38268343 1.08649521 0.92387953
v 6.1232340e-17 1.08649521 1.00000000
v -0.38268343 1.08649521 0.92387953
v -0.70710678 1.08649521 0.70710678
v -0.92387953 1.08649521 0.38268343
v -1.00000000 1.08649521 1.2246468e-16
v -0.92387953 1.08649521 -0.38268343
v -0.70710678 1.08649521 -0.70710678
v -0.38268343 1.08649521 -0.92387953
v -1.8369702e-16 1.08649521 -1.00000000
v 0.38268343 1.08649521 -0.92387953
v 0.70710678 1.08649521 -0.70710678
v 0.92387953 1.08649521 -0.38268343
v 1.00000000 8.6495212e-2 0.0000000e+0
v 0.92387953 8.6495212e-2 0.38268343
v 0.70710678 8.6495212e-2 0.70710678
v 0.38268343 8.6495212e-2 0.92387953
v 6.1232340e-17 8.6495212e-2 1.00000000
v -0.38268343 8.6495212e-2 0.92387953
v -0.70710678 8.6495212e-2 0.70710678
v -0.92387953 8.6495212e-2 0.38268343
v -1.00000000 8.6495212e-2 1.2246468e-16
v -0.92387953 8.6495212e-2 -0.38268343
v -0.70710678 8.6495212e-2 -0.70710678
v -0.38268343 8.6495212e-2 -0.92387953
v -1.8369702e-16 8.6495212e-2 -1.00000000
v 0.38268343 8.6495212e-2 -0.92387953
v 0.70710678 8.6495212e-2 -0.70710678
v 0.92387953 8.6495212e-2 -0.38268343
v 0.89457645 8.6495212e-2 1.4917085e-17
v 0.82648087 8.6495212e-2 0.34233958
v 0.63256107 8.6495212e-2 0.63256107
v 0.34233958 8.6495212e-2 0.82648087
v 6.1232340e-17 8.6495212e-2 0.89457645
v -0.34233958 8.6495212e-2 0.82648087
v -0.63256107 8.6495212e-2 0.63256107
v -0.82648087 8.6495212e-2 0.34233958
v -0.89457645 8.6495212e-2 1.0903930e-16
v -0.82648087 8.6495212e-2 -0.34233958
v -0.63256107 8.6495212e-2 -0.63256107
v -0.34233958 8.6495212e-2 -0.82648087
v -1.6728823e-16 8.6495212e-2 -0.89457645
v 0.34233958 8.6495212e-2 -0.82648087
v 0.63256107 8.6495212e-2 -0.63256107
v 0.82648087 8.6495212e-2 -0.34233958
v 0.97982808 0.98309734 0.10141111
v 0.94405146 0.98309734 0.28127232
v 0.94405146 0.18989308 0.28127232
v 0.97982808 0.18989308 0.10141111
v 0.86643475 0.98309734 0.46865562
v 0.76455156 0.98309734 0.62113459
v 0.76455156 0.18989308 0.62113459
v 0.86643475 0.18989308 0.46865562
v 0.62113459 0.98309734 0.76455156
v 0.46865562 0.98309734 0.86643475
v 0.46865562 0.18989308 0.86643475
v 0.62113459 0.18989308 0.76455156
v 0.28127232 0.98309734 0.94405146
v 0.10141111 0.98309734 0.97982808
v 0.10141111 0.18989308 0.97982808
v 0.28127232 0.18989308 0.94405146
v -0.10141111 0.98309734 0.97982808
v -0.28127232 0.98309734 0.94405146
v -0.28127232 0.18989308 0.94405146
v -0.10141111 0.18989308 0.97982808
v -0.46865562 0.98309734 0.86643475
v -0.62113459 0.98309734 0.76455156
v -0.62113459 0.18989308 0.76455156
v -0.46865562 0.18989308 0.86643475
v -0.76455156 0.98309734 0.62113459
v -0.86643475 0.98309734 0.46865562
v -0.86643475 0.18989308 0.46865562
v -0.76455156 0.18989308 0.62113459
v -0.94405146 0.98309734 0.28127232
v -0.97982808 0.98309734 0.10141111
v -0.97982808 0.18989308 0.10141111
v -0.94405146 0.18989308 0.28127232
v -0.97982808 0.98309734 -0.10141111
v -0.94405146 0.98309734 -0.28127232
v -0.94405146 0.18989308 -0.28127232
v -0.97982808 0.18989308 -0.10141111
v -0.86643475 0.98309734 -0.46865562
v -0.76455156 0.98309734 -0.62113459
v -0.76455156 0.18989308 -0.62113459
v -0.86643475 0.18989308 -0.46865562
v -0.62113459 0.98309734 -0.76455156
v -0.46865562 0.98309734 -0.86643475
v -0.46865562 0.18989308 -0.86643475
v -0.62113459 0.18989308 -0.76455156
v -0.28127232 0.98309734 -0.94405146
v -0.10141111 0.98309734 -0.97982808
v -0.10141111 0.18989308 -0.97982808
v -0.28127232 0.18989308 -0.94405146
v 0.10141111 0.98309734 -0.97982808
v 0.28127232 0.98309734 -0.94405146
v 0.28127232 0.18989308 -0.94405146
v 0.10141111 0.18989308 -0.97982808
v 0.46865562 0.98309734 -0.86643475
v 0.62113459 0.98309734 -0.76455156
v 0.62113459 0.18989308 -0.76455156
v 0.46865562 0.18989308 -0.86643475
v 0.76455156 0.98309734 -0.62113459
v 0.86643475 0.98309734 -0.46865562
v 0.86643475 0.18989308 -0.46865562
v 0.76455156 0.18989308 -0.62113459
v 0.94405146 0.98309734 -0.28127232
v 0.97982808 0.98309734 -0.10141111
v 0.97982808 0.18989308 -0.10141111
v 0.94405146 0.18989308 -0.28127232
v 1.05392010 0.98309734 -0.30312655
v 1.08969672 0.98309734 -0.12326534
v 1.08969672 0.18989308 -0.12326534
v 1.05392010 0.18989308 -0.30312655
v 0.85769370 0.98309734 -0.68337018
v 0.95957689 0.98309734 -0.53089121
v 0.95957689 0.18989308 -0.53089121
v 0.85769370 0.18989308 -0.68337018
v 0.53089121 0.98309734 -0.95957689
v 0.68337018 0.98309734 -0.85769370
v 0.68337018 0.18989308 -0.85769370
v 0.53089121 0.18989308 -0.95957689
v 0.12326534 0.98309734 -1.08969672
v 0.30312655 0.98309734 -1.05392010
v 0.30312655 0.18989308 -1.05392010
v 0.12326534 0.18989308 -1.08969672
v -0.30312655 0.98309734 -1.05392010
v -0.12326534 0.98309734 -1.08969672
v -0.12326534 0.18989308 -1.08969672
v -0.30312655 0.18989308 -1.05392010
v -0.68337018 0.98309734 -0.85769370
v -0.53089121 0.98309734 -0.95957689
v -0.53089121 0.18989308 -0.95957689
v -0.68337018 0.18989308 -0.85769370
v -0.95957689 0.98309734 -0.53089121
v -0.85769370 0.98309734 -0.68337018
v -0.85769370 0.18989308 -0.68337018
v -0.95957689 0.18989308 -0.53089121
v -1.08969672 0.98309734 -0.12326534
v -1.05392010 0.98309734 -0.30312655
v -1.05392010 0.18989308 -0.30312655
v -1.08969672 0.18989308 -0.12326534
v -1.05392010 0.98309734 0.30312655
v -1.08969672 0.98309734 0.12326534
v -1.08969672 0.18989308 0.12326534
v -1.05392010 0.18989308 0.30312655
v -0.85769370 0.98309734 0.68337018
v -0.95957689 0.98309734 0.53089121
v -0.95957689 0.18989308 0.53089121
v -0.85769370 0.18989308 0.68337018
v -0.53089121 0.98309734 0.95957689
v -0.68337018 0.98309734 0.85769370
v -0.68337018 0.18989308 0.85769370
v -0.53089121 0.18989308 0.95957689
v -0.12326534 0.98309734 1.08969672
v -0.30312655 0.98309734 1.05392010
v -0.30312655 0.18989308 1.05392010
v -0.12326534 0.18989308 1.08969672
v 0.30312655 0.98309734 1.05392010
v 0.12326534 0.98309734 1.08969672
v 0.12326534 0.18989308 1.08969672
v 0.30312655 0.18989308 1.05392010
v 0.68337018 0.98309734 0.85769370
v 0.53089121 0.98309734 0.95957689
v 0.53089121 0.18989308 0.95957689
v 0.68337018 0.18989308 0.85769370
v 0.95957689 0.98309734 0.53089121
v 0.85769370 0.98309734 0.68337018
v 0.85769370 0.18989308 0.68337018
v 0.95957689 0.18989308 0.53089121
v 1.08969672 0.98309734 0.12326534
v 1.05392010 0.98309734 0.30312655
v 1.05392010 0.18989308 0.30312655
v 1.08969672 0.18989308 0.12326534
v 0.89457645 -2.5525885e-2 1.4917085e-17
v 0.82648087 -2.5525885e-2 0.34233958
v 0.63256107 -2.5525885e-2 0.63256107
v 0.34233958 -2.5525885e-2 0.82648087
v 6.1232340e-17 -2.5525885e-2 0.89457645
v -0.34233958 -2.5525885e-2 0.82648087
v -0.63256107 -2.5525885e-2 0.63256107
v -0.82648087 -2.5525885e-2 0.34233958
v -0.89457645 -2.5525885e-2 1.0903930e-16
v -0.82648087 -2.5525885e-2 -0.34233958
v -0.63256107 -2.5525885e-2 -0.63256107
v -0.34233958 -2.5525885e-2 -0.82648087
v -1.6728823e-16 -2.5525885e-2 -0.89457645
v 0.34233958 -2.5525885e-2 -0.82648087
v 0.63256107 -2.5525885e-2 -0.63256107
v 0.82648087 -2.5525885e-2 -0.34233958
vn 0.68609214 0.71951932 -0.10756172
vn 0.67502857 0.71951932 0.16318202
vn 0.56119802 0.71951932 0.40908278
vn 0.36193016 0.71951932 0.59270440
vn 0.10756172 0.71951932 0.68609214
vn -0.16318202 0.71951932 0.67502857
vn -0.40908278 0.71951932 0.56119802
vn -0.59270440 0.71951932 0.36193016
vn -0.68609214 0.71951932 0.10756172
vn -0.67502857 0.71951932 -0.16318202
vn -0.56119802 0.71951932 -0.40908278
vn -0.36193016 0.71951932 -0.59270440
vn -0.10756172 0.71951932 -0.68609214
vn 0.16318202 0.71951932 -0.67502857
vn 0.40908278 0.71951932 -0.56119802
vn 0.59270440 0.71951932 -0.36193016
vn 0.98803120 0.14662192 -4.7920248e-2
vn 0.93116009 0.14662192 0.33383064
vn 0.73252830 0.14662192 0.66475883
vn 0.42237571 0.14662192 0.89448352
vn 4.7920248e-2 0.14662192 0.98803120
vn -0.33383064 0.14662192 0.93116009
vn -0.66475883 0.14662192 0.73252830
vn -0.89448352 0.14662192 0.42237571
vn -0.98803120 0.14662192 4.7920248e-2
vn -0.93116009 0.14662192 -0.33383064
vn -0.73252830 0.14662192 -0.66475883
vn -0.42237571 0.14662192 -0.89448352
vn -4.7920248e-2 0.14662192 -0.98803120
vn 0.33383064 0.14662192 -0.93116009
vn 0.66475883 0.14662192 -0.73252830
vn 0.89448352 0.14662192 -0.42237571
vn 0.89090915 -0.45418155 -2.2060623e-16
vn 0.82309273 -0.45418155 0.34093617
vn 0.62996790 -0.45418155 0.62996790
vn 0.34093617 -0.45418155 0.82309273
vn 0.0000000e+0 -0.45418155 0.89090915
vn -0.34093617 -0.45418155 0.82309273
vn -0.62996790 -0.45418155 0.62996790
vn -0.82309273 -0.45418155 0.34093617
vn -0.89090915 -0.45418155 9.4545527e-17
vn -0.82309273 -0.45418155 -0.34093617
vn -0.62996790 -0.45418155 -0.62996790
vn -0.34093617 -0.45418155 -0.82309273
vn -2.2690927e-16 -0.45418155 -0.89090915
vn 0.34093617 -0.45418155 -0.82309273
vn 0.62996790 -0.45418155 -0.62996790
vn 0.82309273 -0.45418155 -0.34093617
vn 0.70021451 -0.71393252 -1.0898584e-16
vn 0.64691385 -0.71393252 0.26796049
vn 0.49512643 -0.71393252 0.49512643
vn 0.26796049 -0.71393252 0.64691385
vn 9.9078040e-18 -0.71393252 0.70021451
vn -0.26796049 -0.71393252 0.64691385
vn -0.49512643 -0.71393252 0.49512643
vn -0.64691385 -0.71393252 0.26796049
vn -0.70021451 -0.71393252 1.0898584e-16
vn -0.64691385 -0.71393252 -0.26796049
vn -0.49512643 -0.71393252 -0.49512643
vn -0.26796049 -0.71393252 -0.64691385
vn -1.1889365e-16 -0.71393252 -0.70021451
vn 0.26796049 -0.71393252 -0.64691385
vn 0.49512643 -0.71393252 -0.49512643
vn 0.64691385 -0.71393252 -0.26796049
vn 0.88045312 0.40824829 -0.24111333
vn 0.72116254 0.40824829 0.55969449
vn 0.72116254 -0.40824829 0.55969449
vn 0.88045312 -0.40824829 -0.24111333
vn 0.90570269 0.40824829 0.11417515
vn 0.45208150 0.40824829 0.79306724
vn 0.45208150 -0.40824829 0.79306724
vn 0.90570269 -0.40824829 0.11417515
vn 0.79306724 0.40824829 0.45208150
vn 0.11417515 0.40824829 0.90570269
vn 0.11417515 -0.40824829 0.90570269
vn 0.79306724 -0.40824829 0.45208150
vn 0.55969449 0.40824829 0.72116254
vn -0.24111333 0.40824829 0.88045312
vn -0.24111333 -0.40824829 0.88045312
vn 0.55969449 -0.40824829 0.72116254
vn 0.24111333 0.40824829 0.88045312
vn -0.55969449 0.40824829 0.72116254
vn -0.55969449 -0.40824829 0.72116254
vn 0.24111333 -0.40824829 0.88045312
vn -0.11417515 0.40824829 0.90570269
vn -0.79306724 0.40824829 0.45208150
vn -0.79306724 -0.40824829 0.45208150
vn -0.11417515 -0.40824829 0.90570269
vn -0.45208150 0.40824829 0.79306724
vn -0.90570269 0.40824829 0.11417515
vn -0.90570269 -0.40824829 0.11417515
vn -0.45208150 -0.40824829 0.79306724
vn -0.72116254 0.40824829 0.55969449
vn -0.88045312 0.40824829 -0.24111333
vn -0.88045312 -0.40824829 -0.24111333
vn -0.72116254 -0.40824829 0.55969449
vn -0.88045312 0.40824829 0.24111333
vn -0.72116254 0.40824829 -0.55969449
vn -0.72116254 -0.40824829 -0.55969449
vn -0.88045312 -0.40824829 0.24111333
vn -0.90570269 0.40824829 -0.11417515
vn -0.45208150 0.40824829 -0.79306724
vn -0.45208150 -0.40824829 -0.79306724
vn -0.90570269 -0.40824829 -0.11417515
vn -0.79306724 0.40824829 -0.45208150
vn -0.11417515 0.40824829 -0.90570269
vn -0.11417515 -0.40824829 -0.90570269
vn -0.79306724 -0.40824829 -0.45208150
vn -0.55969449 0.40824829 -0.72116254
vn 0.24111333 0.40824829 -0.88045312
vn 0.24111333 -0.40824829 -0.88045312
vn -0.55969449 -0.40824829 -0.72116254
vn -0.24111333 0.40824829 -0.88045312
vn 0.55969449 0.40824829 -0.72116254
vn 0.55969449 -0.40824829 -0.72116254
vn -0.24111333 -0.40824829 -0.88045312
vn 0.11417515 0.40824829 -0.90570269
vn 0.79306724 0.40824829 -0.45208150
vn 0.79306724 -0.40824829 -0.45208150
vn 0.11417515 -0.40824829 -0.90570269
vn 0.45208150 0.40824829 -0.79306724
vn 0.90570269 0.40824829 -0.11417515
vn 0.90570269 -0.40824829 -0.11417515
vn 0.45208150 -0.40824829 -0.79306724
vn 0.72116254 0.40824829 -0.55969449
vn 0.88045312 0.40824829 0.24111333
vn 0.88045312 -0.40824829 0.24111333
vn 0.72116254 -0.40824829 -0.55969449
vn 0.45362120 0.57735027 -0.67889210
vn 0.67889210 0.57735027 0.45362120
vn 0.67889210 -0.57735027 0.45362120
vn 0.45362120 -0.57735027 -0.67889210
vn 0.15929058 0.57735027 -0.80080783
vn 0.80080783 0.57735027 0.15929058
vn 0.80080783 -0.57735027 0.15929058
vn 0.15929058 -0.57735027 -0.80080783
vn -0.15929058 0.57735027 -0.80080783
vn 0.80080783 0.57735027 -0.15929058
vn 0.80080783 -0.57735027 -0.15929058
vn -0.15929058 -0.57735027 -0.80080783
vn -0.45362120 0.57735027 -0.67889210
vn 0.67889210 0.57735027 -0.45362120
vn 0.67889210 -0.57735027 -0.45362120
vn -0.45362120 -0.57735027 -0.67889210
vn -0.67889210 0.57735027 -0.45362120
vn 0.45362120 0.57735027 -0.67889210
vn 0.45362120 -0.57735027 -0.67889210
vn -0.67889210 -0.57735027 -0.45362120
vn -0.80080783 0.57735027 -0.15929058
vn 0.15929058 0.57735027 -0.80080783
vn 0.15929058 -0.57735027 -0.80080783
vn -0.80080783 -0.57735027 -0.15929058
vn -0.80080783 0.57735027 0.15929058
vn -0.15929058 0.57735027 -0.80080783
vn -0.15929058 -0.57735027 -0.80080783
vn -0.80080783 -0.57735027 0.15929058
vn -0.67889210 0.57735027 0.45362120
vn -0.45362120 0.57735027 -0.67889210
vn -0.45362120 -0.57735027 -0.67889210
vn -0.67889210 -0.57735027 0.45362120
vn -0.45362120 0.57735027 0.67889210
vn -0.67889210 0.57735027 -0.45362120
vn -0.67889210 -0.57735027 -0.45362120
vn -0.45362120 -0.57735027 0.67889210
vn -0.15929058 0.57735027 0.80080783
vn -0.80080783 0.57735027 -0.15929058
vn -0.80080783 -0.57735027 -0.15929058
vn -0.15929058 -0.57735027 0.80080783
vn 0.15929058 0.57735027 0.80080783
vn -0.80080783 0.57735027 0.15929058
vn -0.80080783 -0.57735027 0.15929058
vn 0.15929058 -0.57735027 0.80080783
vn 0.45362120 0.57735027 0.67889210
vn -0.67889210 0.57735027 0.45362120
vn -0.67889210 -0.57735027 0.45362120
vn 0.45362120 -0.57735027 0.67889210
vn 0.67889210 0.57735027 0.45362120
vn -0.45362120 0.57735027 0.67889210
vn -0.45362120 -0.57735027 0.67889210
vn 0.67889210 -0.57735027 0.45362120
vn 0.80080783 0.57735027 0.15929058
vn -0.15929058 0.57735027 0.80080783
vn -0.15929058 -0.57735027 0.80080783
vn 0.80080783 -0.57735027 0.15929058
vn 0.80080783 0.57735027 -0.15929058
vn 0.15929058 0.57735027 0.80080783
vn 0.15929058 -0.57735027 0.80080783
vn 0.80080783 -0.57735027 -0.15929058
vn 0.67889210 0.57735027 -0.45362120
vn 0.45362120 0.57735027 0.67889210
vn 0.45362120 -0.57735027 0.67889210
vn 0.67889210 -0.57735027 -0.45362120
vn 0.89090915 -0.45418155 -1.3866677e-16
vn 0.82309273 -0.45418155 0.34093617
vn 0.62996790 -0.45418155 0.62996790
vn 0.34093617 -0.45418155 0.82309273
vn 1.2606070e-17 -0.45418155 0.89090915
vn -0.34093617 -0.45418155 0.82309273
vn -0.62996790 -0.45418155 0.62996790
vn -0.82309273 -0.45418155 0.34093617
vn -0.89090915 -0.45418155 1.3866677e-16
vn -0.82309273 -0.45418155 -0.34093617
vn -0.62996790 -0.45418155 -0.62996790
vn -0.34093617 -0.45418155 -0.82309273
vn -1.5127284e-16 -0.45418155 -0.89090915
vn 0.34093617 -0.45418155 -0.82309273
vn 0.62996790 -0.45418155 -0.62996790
vn 0.82309273 -0.45418155 -0.34093617
g cylinder1_default
usemtl default
s 1
f 1//1 16//16 15//15 14//14 13//13 12//12 11//11 10//10 9//9 8//8 7//7 6//6 5//5 4//4 3//3 2//2
f 1//1 17//17 32//32 16//16
f 2//2 18//18 17//17 1//1
f 3//3 19//19 18//18 2//2
f 4//4 20//20 19//19 3//3
f 5//5 21//21 20//20 4//4
f 6//6 22//22 21//21 5//5
f 7//7 23//23 22//22 6//6
f 8//8 24//24 23//23 7//7
f 9//9 25//25 24//24 8//8
f 10//10 26//26 25//25 9//9
f 11//11 27//27 26//26 10//10
f 12//12 28//28 27//27 11//11
f 13//13 29//29 28//28 12//12
f 14//14 30//30 29//29 13//13
f 15//15 31//31 30//30 14//14
f 16//16 32//32 31//31 15//15
f 17//17 65//65 68//68 33//33
f 17//17 126//126 125//125 32//32
f 18//18 66//66 65//65 17//17
f 18//18 69//69 72//72 34//34
f 19//19 70//70 69//69 18//18
f 19//19 73//73 76//76 35//35
f 20//20 74//74 73//73 19//19
f 20//20 77//77 80//80 36//36
f 21//21 78//78 77//77 20//20
f 21//21 81//81 84//84 37//37
f 22//22 82//82 81//81 21//21
f 22//22 85//85 88//88 38//38
f 23//23 86//86 85//85 22//22
f 23//23 89//89 92//92 39//39
f 24//24 90//90 89//89 23//23
f 24//24 93//93 96//96 40//40
f 25//25 94//94 93//93 24//24
f 25//25 97//97 100//100 41//41
f 26//26 98//98 97//97 25//25
f 26//26 101//101 104//104 42//42
f 27//27 102//102 101//101 26//26
f 27//27 105//105 108//108 43//43
f 28//28 106//106 105//105 27//27
f 28//28 109//109 112//112 44//44
f 29//29 110//110 109//109 28//28
f 29//29 113//113 116//116 45//45
f 30//30 114//114 113//113 29//29
f 30//30 117//117 120//120 46//46
f 31//31 118//118 117//117 30//30
f 31//31 121//121 124//124 47//47
f 32//32 122//122 121//121 31//31
f 32//32 125//125 128//128 48//48
f 33//33 49//49 64//64 48//48
f 33//33 68//68 67//67 34//34
f 33//33 127//127 126//126 17//17
f 34//34 50//50 49//49 33//33
f 34//34 67//67 66//66 18//18
f 34//34 72//72 71//71 35//35
f 35//35 51//51 50//50 34//34
f 35//35 71//71 70//70 19//19
f 35//35 76//76 75//75 36//36
f 36//36 52//52 51//51 35//35
f 36//36 75//75 74//74 20//20
f 36//36 80//80 79//79 37//37
f 37//37 53//53 52//52 36//36
f 37//37 79//79 78//78 21//21
f 37//37 84//84 83//83 38//38
f 38//38 54//54 53//53 37//37
f 38//38 83//83 82//82 22//22
f 38//38 88//88 87//87 39//39
f 39//39 55//55 54//54 38//38
f 39//39 87//87 86//86 23//23
f 39//39 92//92 91//91 40//40
f 40//40 56//56 55//55 39//39
f 40//40 91//91 90//90 24//24
f 40//40 96//96 95//95 41//41
f 41//41 57//57 56//56 40//40
f 41//41 95//95 94//94 25//25
f 41//41 100//100 99//99 42//42
f 42//42 58//58 57//57 41//41
f 42//42 99//99 98//98 26//26
f 42//42 104//104 103//103 43//43
f 43//43 59//59 58//58 42//42
f 43//43 103//103 102//102 27//27
f 43//43 108//108 107//107 44//44
f 44//44 60//60 59//59 43//43
f 44//44 107//107 106//106 28//28
f 44//44 112//112 111//111 45//45
f 45//45 61//61 60//60 44//44
f 45//45 111//111 110//110 29//29
f 45//45 116//116 115//115 46//46
f 46//46 62//62 61//61 45//45
f 46//46 115//115 114//114 30//30
f 46//46 120//120 119//119 47//47
f 47//47 63//63 62//62 46//46
f 47//47 119//119 118//118 31//31
f 47//47 124//124 123//123 48//48
f 48//48 64//64 63//63 47//47
f 48//48 123//123 122//122 32//32
f 48//48 128//128 127//127 33//33
f 49//49 193//193 208//208 64//64
f 50//50 194//194 193//193 49//49
f 51//51 195//195 194//194 50//50
f 52//52 196//196 195//195 51//51
f 53//53 197//197 196//196 52//52
f 54//54 198//198 197//197 53//53
f 55//55 199//199 198//198 54//54
f 56//56 200//200 199//199 55//55
f 57//57 201//201 200//200 56//56
f 58//58 202//202 201//201 57//57
f 59//59 203//203 202//202 58//58
f 60//60 204//204 203//203 59//59
f 61//61 205//205 204//204 60//60
f 62//62 206//206 205//205 61//61
f 63//63 207//207 206//206 62//62
f 64//64 208//208 207//207 63//63
f 65//65 189//189 192//192 68//68
f 66//66 190//190 189//189 65//65
f 67//67 191//191 190//190 66//66
f 68//68 192//192 191//191 67//67
f 69//69 185//185 188//188 72//72
f 70//70 186//186 185//185 69//69
f 71//71 187//187 186//186 70//70
f 72//72 188//188 187//187 71//71
f 73//73 181//181 184//184 76//76
f 74//74 182//182 181//181 73//73
f 75//75 183//183 182//182 74//74
f 76//76 184//184 183//183 75//75
f 77//77 177//177 180//180 80//80
f 78//78 178//178 177//177 77//77
f 79//79 179//179 178//178 78//78
f 80//80 180//180 179//179 79//79
f 81//81 173//173 176//176 84//84
f 82//82 174//174 173//173 81//81
f 83//83 175//175 174//174 82//82
f 84//84 176//176 175//175 83//83
f 85//85 169//169 172//172 88//88
f 86//86 170//170 169//169 85//85
f 87//87 171//171 170//170 86//86
f 88//88 172//172 171//171 87//87
f 89//89 165//165 168//168 92//92
f 90//90 166//166 165//165 89//89
f 91//91 167//167 166//166 90//90
f 92//92 168//168 167//167 91//91
f 93//93 161//161 164//164 96//96
f 94//94 162//162 161//161 93//93
f 95//95 163//163 162//162 94//94
f 96//96 164//164 163//163 95//95
f 97//97 157//157 160//160 100//100
f 98//98 158//158 157//157 97//97
f 99//99 159//159 158//158 98//98
f 100//100 160//160 159//159 99//99
f 101//101 153//153 156//156 104//104
f 102//102 154//154 153//153 101//101
f 103//103 155//155 154//154 102//102
f 104//104 156//156 155//155 103//103
f 105//105 149//149 152//152 108//108
f 106//106 150//150 149//149 105//105
f 107//107 151//151 150//150 106//106
f 108//108 152//152 151//151 107//107
f 109//109 145//145 148//148 112//112
f 110//110 146//146 145//145 109//109
f 111//111 147//147 146//146 110//110
f 112//112 148//148 147//147 111//111
f 113//113 141//141 144//144 116//116
f 114//114 142//142 141//141 113//113
f 115//115 143//143 142//142 114//114
f 116//116 144//144 143//143 115//115
f 117//117 137//137 140//140 120//120
f 118//118 138//138 137//137 117//117
f 119//119 139//139 138//138 118//118
f 120//120 140//140 139//139 119//119
f 121//121 133//133 136//136 124//124
f 122//122 134//134 133//133 121//121
f 123//123 135//135 134//134 122//122
f 124//124 136//136 135//135 123//123
f 125//125 129//129 132//132 128//128
f 126//126 130//130 129//129 125//125
f 127//127 131//131 130//130 126//126
f 128//128 132//132 131//131 127//127
f 130//130 131//131 132//132 129//129
f 134//134 135//135 136//136 133//133
f 138//138 139//139 140//140 137//137
f 142//142 143//143 144//144 141//141
f 146//146 147//147 148//148 145//145
f 150//150 151//151 152//152 149//149
f 154//154 155//155 156//156 153//153
f 158//158 159//159 160//160 157//157
f 162//162 163//163 164//164 161//161
f 166//166 167//167 168//168 165//165
f 170//170 171//171 172//172 169//169
f 174//174 175//175 176//176 173//173
f 178//178 179//179 180//180 177//177
f 182//182 183//183 184//184 181//181
f 186//186 187//187 188//188 185//185
f 190//190 191//191 192//192 189//189
f 194//194 195//195 196//196 197//197 198//198 199//199 200//200 201//201 202//202 203//203 204//204 205//205 206//206 207//207 208//208 193//193
