# Exported from Wings 3D 1.4.1
mtllib chess_piece7.mtl
o sphere2
#114 vertices, 128 faces
v 0.30308528 3.46997722 -5.5705927e-19
v 0.28001429 3.46997722 0.11598571
v 0.21431366 3.46997722 0.21431366
v 0.11598571 3.46997722 0.28001429
v 9.4431054e-18 3.46997722 0.30308528
v -0.11598571 3.46997722 0.28001429
v -0.21431366 3.46997722 0.21431366
v -0.28001429 3.46997722 0.11598571
v -0.30308528 3.46997722 3.6560182e-17
v -0.28001429 3.46997722 -0.11598571
v -0.21431366 3.46997722 -0.21431366
v -0.11598571 3.46997722 -0.28001429
v -6.4791378e-17 3.46997722 -0.30308528
v 0.11598571 3.46997722 -0.28001429
v 0.21431366 3.46997722 -0.21431366
v 0.28001429 3.46997722 -0.11598571
v 0.56002857 3.29829320 -5.5705927e-19
v 0.51739893 3.29829320 0.21431366
v 0.39600000 3.29829320 0.39600000
v 0.21431366 3.29829320 0.51739893
v 2.5176344e-17 3.29829320 0.56002857
v -0.21431366 3.29829320 0.51739893
v -0.39600000 3.29829320 0.39600000
v -0.51739893 3.29829320 0.21431366
v -0.56002857 3.29829320 6.8026660e-17
v -0.51739893 3.29829320 -0.21431366
v -0.39600000 3.29829320 -0.39600000
v -0.21431366 3.29829320 -0.51739893
v -1.1199109e-16 3.29829320 -0.56002857
v 0.21431366 3.29829320 -0.51739893
v 0.39600000 3.29829320 -0.39600000
v 0.51739893 3.29829320 -0.21431366
v 0.73171259 3.04134991 -5.5705927e-19
v 0.67601429 3.04134991 0.28001429
v 0.51739893 3.04134991 0.51739893
v 0.28001429 3.04134991 0.67601429
v 3.5688959e-17 3.04134991 0.73171259
v -0.28001429 3.04134991 0.67601429
v -0.51739893 3.04134991 0.51739893
v -0.67601429 3.04134991 0.28001429
v -0.73171259 3.04134991 8.9051889e-17
v -0.67601429 3.04134991 -0.28001429
v -0.51739893 3.04134991 -0.51739893
v -0.28001429 3.04134991 -0.67601429
v -1.4352894e-16 3.04134991 -0.73171259
v 0.28001429 3.04134991 -0.67601429
v 0.51739893 3.04134991 -0.51739893
v 0.67601429 3.04134991 -0.28001429
v 0.79200000 2.73826463 -5.5705927e-19
v 0.73171259 2.73826463 0.30308528
v 0.56002857 2.73826463 0.56002857
v 0.30308528 2.73826463 0.73171259
v 3.9380498e-17 2.73826463 0.79200000
v -0.30308528 2.73826463 0.73171259
v -0.56002857 2.73826463 0.56002857
v -0.73171259 2.73826463 0.30308528
v -0.79200000 2.73826463 9.6434967e-17
v -0.73171259 2.73826463 -0.30308528
v -0.56002857 2.73826463 -0.56002857
v -0.30308528 2.73826463 -0.73171259
v -1.5460356e-16 2.73826463 -0.79200000
v 0.30308528 2.73826463 -0.73171259
v 0.56002857 2.73826463 -0.56002857
v 0.73171259 2.73826463 -0.30308528
v 0.73171259 2.43517935 -5.5705927e-19
v 0.67601429 2.43517935 0.28001429
v 0.51739893 2.43517935 0.51739893
v 0.28001429 2.43517935 0.67601429
v 3.5688959e-17 2.43517935 0.73171259
v -0.28001429 2.43517935 0.67601429
v -0.51739893 2.43517935 0.51739893
v -0.67601429 2.43517935 0.28001429
v -0.73171259 2.43517935 8.9051889e-17
v -0.67601429 2.43517935 -0.28001429
v -0.51739893 2.43517935 -0.51739893
v -0.28001429 2.43517935 -0.67601429
v -1.4352894e-16 2.43517935 -0.73171259
v 0.28001429 2.43517935 -0.67601429
v 0.51739893 2.43517935 -0.51739893
v 0.67601429 2.43517935 -0.28001429
v 0.56002857 2.17823606 -5.5705927e-19
v 0.51739893 2.17823606 0.21431366
v 0.39600000 2.17823606 0.39600000
v 0.21431366 2.17823606 0.51739893
v 2.5176344e-17 2.17823606 0.56002857
v -0.21431366 2.17823606 0.51739893
v -0.39600000 2.17823606 0.39600000
v -0.51739893 2.17823606 0.21431366
v -0.56002857 2.17823606 6.8026660e-17
v -0.51739893 2.17823606 -0.21431366
v -0.39600000 2.17823606 -0.39600000
v -0.21431366 2.17823606 -0.51739893
v -1.1199109e-16 2.17823606 -0.56002857
v 0.21431366 2.17823606 -0.51739893
v 0.39600000 2.17823606 -0.39600000
v 0.51739893 2.17823606 -0.21431366
v 0.30308528 1.63559096 -5.5705927e-19
v 0.28001429 1.63559096 0.11598571
v 0.21431366 1.63559096 0.21431366
v 0.11598571 1.63559096 0.28001429
v 9.4431054e-18 1.63559096 0.30308528
v -0.11598571 1.63559096 0.28001429
v -0.21431366 1.63559096 0.21431366
v -0.28001429 1.63559096 0.11598571
v -0.30308528 1.63559096 3.6560182e-17
v -0.28001429 1.63559096 -0.11598571
v -0.21431366 1.63559096 -0.21431366
v -0.11598571 1.63559096 -0.28001429
v -6.4791378e-17 1.63559096 -0.30308528
v 0.11598571 1.63559096 -0.28001429
v 0.21431366 1.63559096 -0.21431366
v 0.28001429 1.63559096 -0.11598571
v -9.1155154e-18 3.53026463 -5.5705927e-19
v -9.1155154e-18 1.57530355 -5.5705927e-19
vn 0.38219484 0.92408176 -5.8921541e-16
vn 0.35310199 0.92408176 0.14625963
vn 0.27025256 0.92408176 0.27025256
vn 0.14625963 0.92408176 0.35310199
vn -1.7747452e-17 0.92408176 0.38219484
vn -0.14625963 0.92408176 0.35310199
vn -0.27025256 0.92408176 0.27025256
vn -0.35310199 0.92408176 0.14625963
vn -0.38219484 0.92408176 -7.0989809e-18
vn -0.35310199 0.92408176 -0.14625963
vn -0.27025256 0.92408176 -0.27025256
vn -0.14625963 0.92408176 -0.35310199
vn -4.2593885e-17 0.92408176 -0.38219484
vn 0.14625963 0.92408176 -0.35310199
vn 0.27025256 0.92408176 -0.27025256
vn 0.35310199 0.92408176 -0.14625963
vn 0.70658450 0.70762868 -8.5731882e-17
vn 0.65279895 0.70762868 0.27039818
vn 0.49963069 0.70762868 0.49963069
vn 0.27039818 0.70762868 0.65279895
vn -7.1443235e-18 0.70762868 0.70658450
vn -0.27039818 0.70762868 0.65279895
vn -0.49963069 0.70762868 0.49963069
vn -0.65279895 0.70762868 0.27039818
vn -0.70658450 0.70762868 4.2865941e-17
vn -0.65279895 0.70762868 -0.27039818
vn -0.49963069 0.70762868 -0.49963069
vn -0.27039818 0.70762868 -0.65279895
vn -5.7154588e-17 0.70762868 -0.70658450
vn 0.27039818 0.70762868 -0.65279895
vn 0.49963069 0.70762868 -0.49963069
vn 0.65279895 0.70762868 -0.27039818
vn 0.92368212 0.38315969 -1.8692775e-16
vn 0.85337100 0.38315969 0.35347784
vn 0.65314189 0.38315969 0.65314189
vn 0.35347784 0.38315969 0.85337100
vn 7.1895288e-18 0.38315969 0.92368212
vn -0.35347784 0.38315969 0.85337100
vn -0.65314189 0.38315969 0.65314189
vn -0.85337100 0.38315969 0.35347784
vn -0.92368212 0.38315969 1.6535916e-16
vn -0.85337100 0.38315969 -0.35347784
vn -0.65314189 0.38315969 -0.65314189
vn -0.35347784 0.38315969 -0.85337100
vn -1.5816963e-16 0.38315969 -0.92368212
vn 0.35347784 0.38315969 -0.85337100
vn 0.65314189 0.38315969 -0.65314189
vn 0.85337100 0.38315969 -0.35347784
vn 1.00000000 -2.7391208e-16 -2.3066280e-16
vn 0.92387953 -2.6670386e-16 0.38268343
vn 0.70710678 -2.8832850e-16 0.70710678
vn 0.38268343 -2.8112029e-16 0.92387953
vn 1.4416425e-17 -2.8832850e-16 1.00000000
vn -0.38268343 -2.7391208e-16 0.92387953
vn -0.70710678 -2.7391208e-16 0.70710678
vn -0.92387953 -2.9553672e-16 0.38268343
vn -1.00000000 -2.8112029e-16 2.3066280e-16
vn -0.92387953 -2.8112029e-16 -0.38268343
vn -0.70710678 -2.7391208e-16 -0.70710678
vn -0.38268343 -2.7391208e-16 -0.92387953
vn -2.2345459e-16 -2.8112029e-16 -1.00000000
vn 0.38268343 -2.8832850e-16 -0.92387953
vn 0.70710678 -2.8112029e-16 -0.70710678
vn 0.92387953 -2.8112029e-16 -0.38268343
vn 0.92368212 -0.38315969 -1.5816963e-16
vn 0.85337100 -0.38315969 0.35347784
vn 0.65314189 -0.38315969 0.65314189
vn 0.35347784 -0.38315969 0.85337100
vn 0.0000000e+0 -0.38315969 0.92368212
vn -0.35347784 -0.38315969 0.85337100
vn -0.65314189 -0.38315969 0.65314189
vn -0.85337100 -0.38315969 0.35347784
vn -0.92368212 -0.38315969 2.0849634e-16
vn -0.85337100 -0.38315969 -0.35347784
vn -0.65314189 -0.38315969 -0.65314189
vn -0.35347784 -0.38315969 -0.85337100
vn -1.6535916e-16 -0.38315969 -0.92368212
vn 0.35347784 -0.38315969 -0.85337100
vn 0.65314189 -0.38315969 -0.65314189
vn 0.85337100 -0.38315969 -0.35347784
vn 0.86993517 -0.49316610 0.0000000e+0
vn 0.80371530 -0.49316610 0.33290978
vn 0.61513706 -0.49316610 0.61513706
vn 0.33290978 -0.49316610 0.80371530
vn -7.0606523e-18 -0.49316610 0.86993517
vn -0.33290978 -0.49316610 0.80371530
vn -0.61513706 -0.49316610 0.61513706
vn -0.80371530 -0.49316610 0.33290978
vn -0.86993517 -0.49316610 1.9769826e-16
vn -0.80371530 -0.49316610 -0.33290978
vn -0.61513706 -0.49316610 -0.61513706
vn -0.33290978 -0.49316610 -0.80371530
vn -9.1788480e-17 -0.49316610 -0.86993517
vn 0.33290978 -0.49316610 -0.80371530
vn 0.61513706 -0.49316610 -0.61513706
vn 0.80371530 -0.49316610 -0.33290978
vn 0.61204916 -0.79081972 3.9160942e-16
vn 0.56545969 -0.79081972 0.23422107
vn 0.43278411 -0.79081972 0.43278411
vn 0.23422107 -0.79081972 0.56545969
vn 7.8321885e-18 -0.79081972 0.61204916
vn -0.23422107 -0.79081972 0.56545969
vn -0.43278411 -0.79081972 0.43278411
vn -0.56545969 -0.79081972 0.23422107
vn -0.61204916 -0.79081972 6.5790383e-16
vn -0.56545969 -0.79081972 -0.23422107
vn -0.43278411 -0.79081972 -0.43278411
vn -0.23422107 -0.79081972 -0.56545969
vn -7.0489696e-17 -0.79081972 -0.61204916
vn 0.23422107 -0.79081972 -0.56545969
vn 0.43278411 -0.79081972 -0.43278411
vn 0.56545969 -0.79081972 -0.23422107
vn -3.5400799e-18 1.00000000 -1.2301778e-16
vn -2.8320639e-17 -1.00000000 1.5222344e-16
g sphere2_default
usemtl default
s 1
f 1//1 17//17 32//32 16//16
f 1//1 113//113 2//2
f 2//2 18//18 17//17 1//1
f 2//2 113//113 3//3
f 3//3 19//19 18//18 2//2
f 3//3 113//113 4//4
f 4//4 20//20 19//19 3//3
f 4//4 113//113 5//5
f 5//5 21//21 20//20 4//4
f 5//5 113//113 6//6
f 6//6 22//22 21//21 5//5
f 6//6 113//113 7//7
f 7//7 23//23 22//22 6//6
f 7//7 113//113 8//8
f 8//8 24//24 23//23 7//7
f 8//8 113//113 9//9
f 9//9 25//25 24//24 8//8
f 9//9 113//113 10//10
f 10//10 26//26 25//25 9//9
f 10//10 113//113 11//11
f 11//11 27//27 26//26 10//10
f 11//11 113//113 12//12
f 12//12 28//28 27//27 11//11
f 12//12 113//113 13//13
f 13//13 29//29 28//28 12//12
f 13//13 113//113 14//14
f 14//14 30//30 29//29 13//13
f 14//14 113//113 15//15
f 15//15 31//31 30//30 14//14
f 15//15 113//113 16//16
f 16//16 32//32 31//31 15//15
f 16//16 113//113 1//1
f 17//17 33//33 48//48 32//32
f 18//18 34//34 33//33 17//17
f 19//19 35//35 34//34 18//18
f 20//20 36//36 35//35 19//19
f 21//21 37//37 36//36 20//20
f 22//22 38//38 37//37 21//21
f 23//23 39//39 38//38 22//22
f 24//24 40//40 39//39 23//23
f 25//25 41//41 40//40 24//24
f 26//26 42//42 41//41 25//25
f 27//27 43//43 42//42 26//26
f 28//28 44//44 43//43 27//27
f 29//29 45//45 44//44 28//28
f 30//30 46//46 45//45 29//29
f 31//31 47//47 46//46 30//30
f 32//32 48//48 47//47 31//31
f 33//33 49//49 64//64 48//48
f 34//34 50//50 49//49 33//33
f 35//35 51//51 50//50 34//34
f 36//36 52//52 51//51 35//35
f 37//37 53//53 52//52 36//36
f 38//38 54//54 53//53 37//37
f 39//39 55//55 54//54 38//38
f 40//40 56//56 55//55 39//39
f 41//41 57//57 56//56 40//40
f 42//42 58//58 57//57 41//41
f 43//43 59//59 58//58 42//42
f 44//44 60//60 59//59 43//43
f 45//45 61//61 60//60 44//44
f 46//46 62//62 61//61 45//45
f 47//47 63//63 62//62 46//46
f 48//48 64//64 63//63 47//47
f 49//49 65//65 80//80 64//64
f 50//50 66//66 65//65 49//49
f 51//51 67//67 66//66 50//50
f 52//52 68//68 67//67 51//51
f 53//53 69//69 68//68 52//52
f 54//54 70//70 69//69 53//53
f 55//55 71//71 70//70 54//54
f 56//56 72//72 71//71 55//55
f 57//57 73//73 72//72 56//56
f 58//58 74//74 73//73 57//57
f 59//59 75//75 74//74 58//58
f 60//60 76//76 75//75 59//59
f 61//61 77//77 76//76 60//60
f 62//62 78//78 77//77 61//61
f 63//63 79//79 78//78 62//62
f 64//64 80//80 79//79 63//63
f 65//65 81//81 96//96 80//80
f 66//66 82//82 81//81 65//65
f 67//67 83//83 82//82 66//66
f 68//68 84//84 83//83 67//67
f 69//69 85//85 84//84 68//68
f 70//70 86//86 85//85 69//69
f 71//71 87//87 86//86 70//70
f 72//72 88//88 87//87 71//71
f 73//73 89//89 88//88 72//72
f 74//74 90//90 89//89 73//73
f 75//75 91//91 90//90 74//74
f 76//76 92//92 91//91 75//75
f 77//77 93//93 92//92 76//76
f 78//78 94//94 93//93 77//77
f 79//79 95//95 94//94 78//78
f 80//80 96//96 95//95 79//79
f 81//81 97//97 112//112 96//96
f 82//82 98//98 97//97 81//81
f 83//83 99//99 98//98 82//82
f 84//84 100//100 99//99 83//83
f 85//85 101//101 100//100 84//84
f 86//86 102//102 101//101 85//85
f 87//87 103//103 102//102 86//86
f 88//88 104//104 103//103 87//87
f 89//89 105//105 104//104 88//88
f 90//90 106//106 105//105 89//89
f 91//91 107//107 106//106 90//90
f 92//92 108//108 107//107 91//91
f 93//93 109//109 108//108 92//92
f 94//94 110//110 109//109 93//93
f 95//95 111//111 110//110 94//94
f 96//96 112//112 111//111 95//95
f 97//97 114//114 112//112
f 98//98 114//114 97//97
f 99//99 114//114 98//98
f 100//100 114//114 99//99
f 101//101 114//114 100//100
f 102//102 114//114 101//101
f 103//103 114//114 102//102
f 104//104 114//114 103//103
f 105//105 114//114 104//104
f 106//106 114//114 105//105
f 107//107 114//114 106//106
f 108//108 114//114 107//107
f 109//109 114//114 108//108
f 110//110 114//114 109//109
f 111//111 114//114 110//110
f 112//112 114//114 111//111
o cylinder1
#112 vertices, 98 faces
v 0.92040000 0.27032612 -3.3984317e-18
v 0.85033872 0.27032612 0.35222183
v 0.65082108 0.27032612 0.65082108
v 0.35222183 0.27032612 0.85033872
v 6.0124677e-17 0.27032612 0.92040000
v -0.35222183 0.27032612 0.85033872
v -0.65082108 0.27032612 0.65082108
v -0.85033872 0.27032612 0.35222183
v -0.92040000 0.27032612 1.0931806e-16
v -0.85033872 0.27032612 -0.35222183
v -0.65082108 0.27032612 -0.65082108
v -0.35222183 0.27032612 -0.85033872
v -1.6530831e-16 0.27032612 -0.92040000
v 0.35222183 0.27032612 -0.85033872
v 0.65082108 0.27032612 -0.65082108
v 0.85033872 0.27032612 -0.35222183
v 0.92040000 -8.0351985e-3 -3.3984317e-18
v 0.85033872 -8.0351985e-3 0.35222183
v 0.65082108 -8.0351985e-3 0.65082108
v 0.35222183 -8.0351985e-3 0.85033872
v 6.0124677e-17 -8.0351985e-3 0.92040000
v -0.35222183 -8.0351985e-3 0.85033872
v -0.65082108 -8.0351985e-3 0.65082108
v -0.85033872 -8.0351985e-3 0.35222183
v -0.92040000 -8.0351985e-3 1.0931806e-16
v -0.85033872 -8.0351985e-3 -0.35222183
v -0.65082108 -8.0351985e-3 -0.65082108
v -0.35222183 -8.0351985e-3 -0.85033872
v -1.6530831e-16 -8.0351985e-3 -0.92040000
v 0.35222183 -8.0351985e-3 -0.85033872
v 0.65082108 -8.0351985e-3 -0.65082108
v 0.85033872 -8.0351985e-3 -0.35222183
v 0.40118545 0.57625700 0.16617645
v 0.43424000 0.57625700 -6.5400743e-18
v 0.40118545 0.57625700 -0.16617645
v 0.30705405 0.57625700 -0.30705405
v 0.16617645 0.57625700 -0.40118545
v -1.1091257e-16 0.57625700 -0.43424000
v -0.16617645 0.57625700 -0.40118545
v -0.30705405 0.57625700 -0.30705405
v -0.40118545 0.57625700 -0.16617645
v -0.43424000 0.57625700 4.6638988e-17
v -0.40118545 0.57625700 0.16617645
v -0.30705405 0.57625700 0.30705405
v -0.16617645 0.57625700 0.40118545
v -4.5544450e-18 0.57625700 0.43424000
v 0.16617645 0.57625700 0.40118545
v 0.30705405 0.57625700 0.30705405
v 0.40118545 0.72013231 0.16617645
v 0.43424000 0.72013231 -6.5400743e-18
v 0.40118545 0.72013231 -0.16617645
v 0.30705405 0.72013231 -0.30705405
v 0.16617645 0.72013231 -0.40118545
v -1.1091257e-16 0.72013231 -0.43424000
v -0.16617645 0.72013231 -0.40118545
v -0.30705405 0.72013231 -0.30705405
v -0.40118545 0.72013231 -0.16617645
v -0.43424000 0.72013231 4.6638988e-17
v -0.40118545 0.72013231 0.16617645
v -0.30705405 0.72013231 0.30705405
v -0.16617645 0.72013231 0.40118545
v -4.5544450e-18 0.72013231 0.43424000
v 0.16617645 0.72013231 0.40118545
v 0.30705405 0.72013231 0.30705405
v 0.63316051 1.16424701 0.26226367
v 0.68532800 1.16424701 -1.5815143e-17
v 0.63316051 1.16424701 -0.26226367
v 0.48460008 1.16424701 -0.48460008
v 0.26226367 1.16424701 -0.63316051
v -1.3901211e-16 1.16424701 -0.68532800
v -0.26226367 1.16424701 -0.63316051
v -0.48460008 1.16424701 -0.48460008
v -0.63316051 1.16424701 -0.26226367
v -0.68532800 1.16424701 6.8113331e-17
v -0.63316051 1.16424701 0.26226367
v -0.48460008 1.16424701 0.48460008
v -0.26226367 1.16424701 0.63316051
v 2.8844843e-17 1.16424701 0.68532800
v 0.26226367 1.16424701 0.63316051
v 0.48460008 1.16424701 0.48460008
v 0.63316051 1.49330241 0.26226367
v 0.68532800 1.49330241 -1.5815143e-17
v 0.63316051 1.49330241 -0.26226367
v 0.48460008 1.49330241 -0.48460008
v 0.26226367 1.49330241 -0.63316051
v -1.3901211e-16 1.49330241 -0.68532800
v -0.26226367 1.49330241 -0.63316051
v -0.48460008 1.49330241 -0.48460008
v -0.63316051 1.49330241 -0.26226367
v -0.68532800 1.49330241 6.8113331e-17
v -0.63316051 1.49330241 0.26226367
v -0.48460008 1.49330241 0.48460008
v -0.26226367 1.49330241 0.63316051
v 2.8844843e-17 1.49330241 0.68532800
v 0.26226367 1.49330241 0.63316051
v 0.48460008 1.49330241 0.48460008
v 0.18662367 2.65895638 7.7302053e-2
v 0.20200000 2.65895638 -5.6739446e-18
v 0.18662367 2.65895638 -7.7302053e-2
v 0.14283557 2.65895638 -0.14283557
v 7.7302053e-2 2.65895638 -0.18662367
v -7.0330222e-17 2.65895638 -0.20200000
v -7.7302053e-2 2.65895638 -0.18662367
v -0.14283557 2.65895638 -0.14283557
v -0.18662367 2.65895638 -7.7302053e-2
v -0.20200000 2.65895638 1.9063921e-17
v -0.18662367 2.65895638 7.7302053e-2
v -0.14283557 2.65895638 0.14283557
v -7.7302053e-2 2.65895638 0.18662367
v -2.0854491e-17 2.65895638 0.20200000
v 7.7302053e-2 2.65895638 0.18662367
v 0.14283557 2.65895638 0.14283557
vn 0.87353482 0.48676167 -3.6117229e-17
vn 0.80704094 0.48676167 0.33428730
vn 0.61768239 0.48676167 0.61768239
vn 0.33428730 0.48676167 0.80704094
vn -1.2039076e-17 0.48676167 0.87353482
vn -0.33428730 0.48676167 0.80704094
vn -0.61768239 0.48676167 0.61768239
vn -0.80704094 0.48676167 0.33428730
vn -0.87353482 0.48676167 2.8492481e-16
vn -0.80704094 0.48676167 -0.33428730
vn -0.61768239 0.48676167 -0.61768239
vn -0.33428730 0.48676167 -0.80704094
vn -1.8861220e-16 0.48676167 -0.87353482
vn 0.33428730 0.48676167 -0.80704094
vn 0.61768239 0.48676167 -0.61768239
vn 0.80704094 0.48676167 -0.33428730
vn 0.89090915 -0.45418155 1.2606070e-17
vn 0.82309273 -0.45418155 0.34093617
vn 0.62996790 -0.45418155 0.62996790
vn 0.34093617 -0.45418155 0.82309273
vn 0.0000000e+0 -0.45418155 0.89090915
vn -0.34093617 -0.45418155 0.82309273
vn -0.62996790 -0.45418155 0.62996790
vn -0.82309273 -0.45418155 0.34093617
vn -0.89090915 -0.45418155 2.8993962e-16
vn -0.82309273 -0.45418155 -0.34093617
vn -0.62996790 -0.45418155 -0.62996790
vn -0.34093617 -0.45418155 -0.82309273
vn -1.6387891e-16 -0.45418155 -0.89090915
vn 0.34093617 -0.45418155 -0.82309273
vn 0.62996790 -0.45418155 -0.62996790
vn 0.82309273 -0.45418155 -0.34093617
vn 0.80704094 0.48676167 0.33428730
vn 0.87353482 0.48676167 -1.3644287e-16
vn 0.80704094 0.48676167 -0.33428730
vn 0.61768239 0.48676167 -0.61768239
vn 0.33428730 0.48676167 -0.80704094
vn -2.0867732e-16 0.48676167 -0.87353482
vn -0.33428730 0.48676167 -0.80704094
vn -0.61768239 0.48676167 -0.61768239
vn -0.80704094 0.48676167 -0.33428730
vn -0.87353482 0.48676167 1.8459917e-16
vn -0.80704094 0.48676167 0.33428730
vn -0.61768239 0.48676167 0.61768239
vn -0.33428730 0.48676167 0.80704094
vn -8.0260509e-18 0.48676167 0.87353482
vn 0.33428730 0.48676167 0.80704094
vn 0.61768239 0.48676167 0.61768239
vn 0.89332667 -0.25504258 0.37002802
vn 0.96692982 -0.25504258 -8.0285575e-17
vn 0.89332667 -0.25504258 -0.37002802
vn 0.68372263 -0.25504258 -0.68372263
vn 0.37002802 -0.25504258 -0.89332667
vn -1.5327246e-16 -0.25504258 -0.96692982
vn -0.37002802 -0.25504258 -0.89332667
vn -0.68372263 -0.25504258 -0.68372263
vn -0.89332667 -0.25504258 -0.37002802
vn -0.96692982 -0.25504258 1.6057115e-16
vn -0.89332667 -0.25504258 0.37002802
vn -0.68372263 -0.25504258 0.68372263
vn -0.37002802 -0.25504258 0.89332667
vn 1.4597377e-17 -0.25504258 0.96692982
vn 0.37002802 -0.25504258 0.89332667
vn 0.68372263 -0.25504258 0.68372263
vn 0.89332667 -0.25504258 0.37002802
vn 0.96692982 -0.25504258 8.7584264e-17
vn 0.89332667 -0.25504258 -0.37002802
vn 0.68372263 -0.25504258 -0.68372263
vn 0.37002802 -0.25504258 -0.89332667
vn -5.8389509e-17 -0.25504258 -0.96692982
vn -0.37002802 -0.25504258 -0.89332667
vn -0.68372263 -0.25504258 -0.68372263
vn -0.89332667 -0.25504258 -0.37002802
vn -0.96692982 -0.25504258 1.7516853e-16
vn -0.89332667 -0.25504258 0.37002802
vn -0.68372263 -0.25504258 0.68372263
vn -0.37002802 -0.25504258 0.89332667
vn 2.9194755e-17 -0.25504258 0.96692982
vn 0.37002802 -0.25504258 0.89332667
vn 0.68372263 -0.25504258 0.68372263
vn 0.90604424 0.19554257 0.37529581
vn 0.98069522 0.19554257 1.4407206e-16
vn 0.90604424 0.19554257 -0.37529581
vn 0.69345624 0.19554257 -0.69345624
vn 0.37529581 0.19554257 -0.90604424
vn -1.4407206e-17 0.19554257 -0.98069522
vn -0.37529581 0.19554257 -0.90604424
vn -0.69345624 0.19554257 -0.69345624
vn -0.90604424 0.19554257 -0.37529581
vn -0.98069522 0.19554257 1.5127566e-16
vn -0.90604424 0.19554257 0.37529581
vn -0.69345624 0.19554257 0.69345624
vn -0.37529581 0.19554257 0.90604424
vn 2.1610808e-17 0.19554257 0.98069522
vn 0.37529581 0.19554257 0.90604424
vn 0.69345624 0.19554257 0.69345624
vn 0.66481862 0.69439454 0.27537689
vn 0.71959448 0.69439454 2.9677844e-16
vn 0.66481862 0.69439454 -0.27537689
vn 0.50883014 0.69439454 -0.50883014
vn 0.27537689 0.69439454 -0.66481862
vn 0.0000000e+0 0.69439454 -0.71959448
vn -0.27537689 0.69439454 -0.66481862
vn -0.50883014 0.69439454 -0.50883014
vn -0.66481862 0.69439454 -0.27537689
vn -0.71959448 0.69439454 2.8578665e-16
vn -0.66481862 0.69439454 0.27537689
vn -0.50883014 0.69439454 0.50883014
vn -0.27537689 0.69439454 0.66481862
vn 1.0991794e-17 0.69439454 0.71959448
vn 0.27537689 0.69439454 0.66481862
vn 0.50883014 0.69439454 0.50883014
g cylinder1_default
usemtl default
s 1
f 115//115 131//131 146//146 130//130
f 115//115 148//148 147//147 116//116
f 116//116 132//132 131//131 115//115
f 116//116 147//147 162//162 117//117
f 117//117 133//133 132//132 116//116
f 117//117 162//162 161//161 118//118
f 118//118 134//134 133//133 117//117
f 118//118 161//161 160//160 119//119
f 119//119 135//135 134//134 118//118
f 119//119 160//160 159//159 120//120
f 120//120 136//136 135//135 119//119
f 120//120 159//159 158//158 121//121
f 121//121 137//137 136//136 120//120
f 121//121 158//158 157//157 122//122
f 122//122 138//138 137//137 121//121
f 122//122 157//157 156//156 123//123
f 123//123 139//139 138//138 122//122
f 123//123 156//156 155//155 124//124
f 124//124 140//140 139//139 123//123
f 124//124 155//155 154//154 125//125
f 125//125 141//141 140//140 124//124
f 125//125 154//154 153//153 126//126
f 126//126 142//142 141//141 125//125
f 126//126 153//153 152//152 127//127
f 127//127 143//143 142//142 126//126
f 127//127 152//152 151//151 128//128
f 128//128 144//144 143//143 127//127
f 128//128 151//151 150//150 129//129
f 129//129 145//145 144//144 128//128
f 129//129 150//150 149//149 130//130
f 130//130 146//146 145//145 129//129
f 130//130 149//149 148//148 115//115
f 132//132 133//133 134//134 135//135 136//136 137//137 138//138 139//139 140//140 141//141 142//142 143//143 144//144 145//145 146//146 131//131
f 147//147 163//163 178//178 162//162
f 148//148 164//164 163//163 147//147
f 149//149 165//165 164//164 148//148
f 150//150 166//166 165//165 149//149
f 151//151 167//167 166//166 150//150
f 152//152 168//168 167//167 151//151
f 153//153 169//169 168//168 152//152
f 154//154 170//170 169//169 153//153
f 155//155 171//171 170//170 154//154
f 156//156 172//172 171//171 155//155
f 157//157 173//173 172//172 156//156
f 158//158 174//174 173//173 157//157
f 159//159 175//175 174//174 158//158
f 160//160 176//176 175//175 159//159
f 161//161 177//177 176//176 160//160
f 162//162 178//178 177//177 161//161
f 163//163 179//179 194//194 178//178
f 164//164 180//180 179//179 163//163
f 165//165 181//181 180//180 164//164
f 166//166 182//182 181//181 165//165
f 167//167 183//183 182//182 166//166
f 168//168 184//184 183//183 167//167
f 169//169 185//185 184//184 168//168
f 170//170 186//186 185//185 169//169
f 171//171 187//187 186//186 170//170
f 172//172 188//188 187//187 171//171
f 173//173 189//189 188//188 172//172
f 174//174 190//190 189//189 173//173
f 175//175 191//191 190//190 174//174
f 176//176 192//192 191//191 175//175
f 177//177 193//193 192//192 176//176
f 178//178 194//194 193//193 177//177
f 179//179 195//195 210//210 194//194
f 180//180 196//196 195//195 179//179
f 181//181 197//197 196//196 180//180
f 182//182 198//198 197//197 181//181
f 183//183 199//199 198//198 182//182
f 184//184 200//200 199//199 183//183
f 185//185 201//201 200//200 184//184
f 186//186 202//202 201//201 185//185
f 187//187 203//203 202//202 186//186
f 188//188 204//204 203//203 187//187
f 189//189 205//205 204//204 188//188
f 190//190 206//206 205//205 189//189
f 191//191 207//207 206//206 190//190
f 192//192 208//208 207//207 191//191
f 193//193 209//209 208//208 192//192
f 194//194 210//210 209//209 193//193
f 195//195 211//211 226//226 210//210
f 196//196 212//212 211//211 195//195
f 197//197 213//213 212//212 196//196
f 198//198 214//214 213//213 197//197
f 199//199 215//215 214//214 198//198
f 200//200 216//216 215//215 199//199
f 201//201 217//217 216//216 200//200
f 202//202 218//218 217//217 201//201
f 203//203 219//219 218//218 202//202
f 204//204 220//220 219//219 203//203
f 205//205 221//221 220//220 204//204
f 206//206 222//222 221//221 205//205
f 207//207 223//223 222//222 206//206
f 208//208 224//224 223//223 207//207
f 209//209 225//225 224//224 208//208
f 210//210 226//226 225//225 209//209
f 212//212 213//213 214//214 215//215 216//216 217//217 218//218 219//219 220//220 221//221 222//222 223//223 224//224 225//225 226//226 211//211
