# Exported from Wings 3D 1.4.1
mtllib chess_piece4.mtl
o cylinder1
#144 vertices, 98 faces
v 0.47002000 2.24881861 -1.8086362e-17
v 0.43424186 2.24881861 0.17986887
v 0.33235433 2.24881861 0.33235433
v 0.17986887 2.24881861 0.43424186
v -1.9925986e-18 2.24881861 0.47002000
v -0.17986887 2.24881861 0.43424186
v -0.33235433 2.24881861 0.33235433
v -0.43424186 2.24881861 0.17986887
v -0.47002000 2.24881861 3.9474486e-17
v -0.43424186 2.24881861 -0.17986887
v -0.33235433 2.24881861 -0.33235433
v -0.17986887 2.24881861 -0.43424186
v -1.1711430e-16 2.24881861 -0.47002000
v 0.17986887 2.24881861 -0.43424186
v 0.33235433 2.24881861 -0.33235433
v 0.43424186 2.24881861 -0.17986887
v 1.00000000 0.0000000e+0 0.0000000e+0
v 0.92387953 0.0000000e+0 0.38268343
v 0.70710678 0.0000000e+0 0.70710678
v 0.38268343 0.0000000e+0 0.92387953
v 6.1232340e-17 0.0000000e+0 1.00000000
v -0.38268343 0.0000000e+0 0.92387953
v -0.70710678 0.0000000e+0 0.70710678
v -0.92387953 0.0000000e+0 0.38268343
v -1.00000000 0.0000000e+0 1.2246468e-16
v -0.92387953 0.0000000e+0 -0.38268343
v -0.70710678 0.0000000e+0 -0.70710678
v -0.38268343 0.0000000e+0 -0.92387953
v -1.8369702e-16 0.0000000e+0 -1.00000000
v 0.38268343 0.0000000e+0 -0.92387953
v 0.70710678 0.0000000e+0 -0.70710678
v 0.92387953 0.0000000e+0 -0.38268343
v 0.59996927 3.22348085 0.24851541
v 0.64940206 3.22348085 -6.9388939e-17
v 0.59996927 3.22348085 -0.24851541
v 0.45919660 3.22348085 -0.45919660
v 0.24851541 3.22348085 -0.59996927
v -1.3877788e-16 3.22348085 -0.64940206
v -0.24851541 3.22348085 -0.59996927
v -0.45919660 3.22348085 -0.45919660
v -0.59996927 3.22348085 -0.24851541
v -0.64940206 3.22348085 6.2450045e-17
v -0.59996927 3.22348085 0.24851541
v -0.45919660 3.22348085 0.45919660
v -0.24851541 3.22348085 0.59996927
v 2.0816682e-17 3.22348085 0.64940206
v 0.24851541 3.22348085 0.59996927
v 0.45919660 3.22348085 0.45919660
v 0.22476190 4.05110284 9.3099429e-2
v 0.24328053 4.05110284 -2.0816682e-17
v 0.22476190 4.05110284 -9.3099429e-2
v 0.17202531 4.05110284 -0.17202531
v 9.3099429e-2 4.05110284 -0.22476190
v -7.4593109e-17 4.05110284 -0.24328053
v -9.3099429e-2 4.05110284 -0.22476190
v -0.17202531 4.05110284 -0.17202531
v -0.22476190 4.05110284 -9.3099429e-2
v -0.24328053 4.05110284 2.7755576e-17
v -0.22476190 4.05110284 9.3099429e-2
v -0.17202531 4.05110284 0.17202531
v -9.3099429e-2 4.05110284 0.22476190
v -1.5612511e-17 4.05110284 0.24328053
v 9.3099429e-2 4.05110284 0.22476190
v 0.17202531 4.05110284 0.17202531
v 0.63680413 3.22348085 0.12666822
v 0.63680413 3.22348085 -0.12666822
v 0.53985647 3.22348085 -0.36072056
v 0.36072056 3.22348085 -0.53985647
v 0.12666822 3.22348085 -0.63680413
v -0.12666822 3.22348085 -0.63680413
v -0.36072056 3.22348085 -0.53985647
v -0.53985647 3.22348085 -0.36072056
v -0.63680413 3.22348085 -0.12666822
v -0.63680413 3.22348085 0.12666822
v -0.53985647 3.22348085 0.36072056
v -0.36072056 3.22348085 0.53985647
v -0.12666822 3.22348085 0.63680413
v 0.12666822 3.22348085 0.63680413
v 0.36072056 3.22348085 0.53985647
v 0.53985647 3.22348085 0.36072056
v 0.23856106 4.05110284 4.7452746e-2
v 0.41236559 3.36089698 0.17080742
v 0.23856106 4.05110284 -4.7452746e-2
v 0.44634130 3.36089698 -4.1633363e-17
v 0.20224230 4.05110284 -0.13513399
v 0.41236559 3.36089698 -0.17080742
v 0.13513399 4.05110284 -0.20224230
v 0.31561096 3.36089698 -0.31561096
v 4.7452746e-2 4.05110284 -0.23856106
v 0.17080742 3.36089698 -0.41236559
v -4.7452746e-2 4.05110284 -0.23856106
v -1.0408341e-16 3.36089698 -0.44634130
v -0.13513399 4.05110284 -0.20224230
v -0.17080742 3.36089698 -0.41236559
v -0.20224230 4.05110284 -0.13513399
v -0.31561096 3.36089698 -0.31561096
v -0.23856106 4.05110284 -4.7452746e-2
v -0.41236559 3.36089698 -0.17080742
v -0.23856106 4.05110284 4.7452746e-2
v -0.44634130 3.36089698 4.8572257e-17
v -0.20224230 4.05110284 0.13513399
v -0.41236559 3.36089698 0.17080742
v -0.13513399 4.05110284 0.20224230
v -0.31561096 3.36089698 0.31561096
v -4.7452746e-2 4.05110284 0.23856106
v -0.17080742 3.36089698 0.41236559
v 4.7452746e-2 4.05110284 0.23856106
v 0.0000000e+0 3.36089698 0.44634130
v 0.13513399 4.05110284 0.20224230
v 0.17080742 3.36089698 0.41236559
v 0.20224230 4.05110284 0.13513399
v 0.31561096 3.36089698 0.31561096
v 4.3895235e-2 3.90192950 8.7313052e-3
v 4.4763618e-2 3.90192950 2.9017534e-17
v 4.3895235e-2 3.90192950 -8.7313052e-3
v 4.1356190e-2 3.90192950 -1.7130295e-2
v 3.7212584e-2 3.90192950 -2.4864654e-2
v 3.1652658e-2 3.90192950 -3.1652658e-2
v 2.4864654e-2 3.90192950 -3.7212584e-2
v 1.7130295e-2 3.90192950 -4.1356190e-2
v 8.7313052e-3 3.90192950 -4.3895235e-2
v -7.4593109e-17 3.90192950 -4.4763618e-2
v -8.7313052e-3 3.90192950 -4.3895235e-2
v -1.7130295e-2 3.90192950 -4.1356190e-2
v -2.4864654e-2 3.90192950 -3.7212584e-2
v -3.1652658e-2 3.90192950 -3.1652658e-2
v -3.7212584e-2 3.90192950 -2.4864654e-2
v -4.1356190e-2 3.90192950 -1.7130295e-2
v -4.3895235e-2 3.90192950 -8.7313052e-3
v -4.4763618e-2 3.90192950 -3.0384343e-17
v -4.3895235e-2 3.90192950 8.7313052e-3
v -4.1356190e-2 3.90192950 1.7130295e-2
v -3.7212584e-2 3.90192950 2.4864654e-2
v -3.1652658e-2 3.90192950 3.1652658e-2
v -2.4864654e-2 3.90192950 3.7212584e-2
v -1.7130295e-2 3.90192950 4.1356190e-2
v -8.7313052e-3 3.90192950 4.3895235e-2
v -1.5612511e-17 3.90192950 4.4763618e-2
v 8.7313052e-3 3.90192950 4.3895235e-2
v 1.7130295e-2 3.90192950 4.1356190e-2
v 2.4864654e-2 3.90192950 3.7212584e-2
v 3.1652658e-2 3.90192950 3.1652658e-2
v 3.7212584e-2 3.90192950 2.4864654e-2
v 4.1356190e-2 3.90192950 1.7130295e-2
vn 0.99977671 2.1131360e-2 -2.8912928e-16
vn 0.92367324 2.1131360e-2 0.38259798
vn 0.70694889 2.1131360e-2 0.70694889
vn 0.38259798 2.1131360e-2 0.92367324
vn 2.1684696e-17 2.1131360e-2 0.99977671
vn -0.38259798 2.1131360e-2 0.92367324
vn -0.70694889 2.1131360e-2 0.70694889
vn -0.92367324 2.1131360e-2 0.38259798
vn -0.99977671 2.1131360e-2 1.6624934e-16
vn -0.92367324 2.1131360e-2 -0.38259798
vn -0.70694889 2.1131360e-2 -0.70694889
vn -0.38259798 2.1131360e-2 -0.92367324
vn -7.2282320e-17 2.1131360e-2 -0.99977671
vn 0.38259798 2.1131360e-2 -0.92367324
vn 0.70694889 2.1131360e-2 -0.70694889
vn 0.92367324 2.1131360e-2 -0.38259798
vn 0.96105238 -0.27636629 -1.1165688e-16
vn 0.88789662 -0.27636629 0.36777882
vn 0.67956665 -0.27636629 0.67956665
vn 0.36777882 -0.27636629 0.88789662
vn 0.0000000e+0 -0.27636629 0.96105238
vn -0.36777882 -0.27636629 0.88789662
vn -0.67956665 -0.27636629 0.67956665
vn -0.88789662 -0.27636629 0.36777882
vn -0.96105238 -0.27636629 1.8144243e-16
vn -0.88789662 -0.27636629 -0.36777882
vn -0.67956665 -0.27636629 -0.67956665
vn -0.36777882 -0.27636629 -0.88789662
vn -9.7699773e-17 -0.27636629 -0.96105238
vn 0.36777882 -0.27636629 -0.88789662
vn 0.67956665 -0.27636629 -0.67956665
vn 0.88789662 -0.27636629 -0.36777882
vn 0.84879765 0.39488174 0.35158350
vn 0.91873196 0.39488174 -5.9211213e-16
vn 0.84879765 0.39488174 -0.35158350
vn 0.64964160 0.39488174 -0.64964160
vn 0.35158350 0.39488174 -0.84879765
vn -2.0300987e-16 0.39488174 -0.91873196
vn -0.35158350 0.39488174 -0.84879765
vn -0.64964160 0.39488174 -0.64964160
vn -0.84879765 0.39488174 -0.35158350
vn -0.91873196 0.39488174 1.2688117e-16
vn -0.84879765 0.39488174 0.35158350
vn -0.64964160 0.39488174 0.64964160
vn -0.35158350 0.39488174 0.84879765
vn 2.1146862e-16 0.39488174 0.91873196
vn 0.35158350 0.39488174 0.84879765
vn 0.64964160 0.39488174 0.64964160
vn 0.28146635 0.95246214 0.11658718
vn 0.30465699 0.95246214 1.1085229e-16
vn 0.28146635 0.95246214 -0.11658718
vn 0.21542502 0.95246214 -0.21542502
vn 0.11658718 0.95246214 -0.28146635
vn 5.2346913e-17 0.95246214 -0.30465699
vn -0.11658718 0.95246214 -0.28146635
vn -0.21542502 0.95246214 -0.21542502
vn -0.28146635 0.95246214 -0.11658718
vn -0.30465699 0.95246214 -1.1393152e-16
vn -0.28146635 0.95246214 0.11658718
vn -0.21542502 0.95246214 0.21542502
vn -0.11658718 0.95246214 0.28146635
vn 8.6218445e-17 0.95246214 0.30465699
vn 0.11658718 0.95246214 0.28146635
vn 0.21542502 0.95246214 0.21542502
vn 0.90376460 0.38844859 0.17976996
vn 0.90376460 0.38844859 -0.17976996
vn 0.76617463 0.38844859 -0.51194152
vn 0.51194152 0.38844859 -0.76617463
vn 0.17976996 0.38844859 -0.90376460
vn -0.17976996 0.38844859 -0.90376460
vn -0.51194152 0.38844859 -0.76617463
vn -0.76617463 0.38844859 -0.51194152
vn -0.90376460 0.38844859 -0.17976996
vn -0.90376460 0.38844859 0.17976996
vn -0.76617463 0.38844859 0.51194152
vn -0.51194152 0.38844859 0.76617463
vn -0.17976996 0.38844859 0.90376460
vn 0.17976996 0.38844859 0.90376460
vn 0.51194152 0.38844859 0.76617463
vn 0.76617463 0.38844859 0.51194152
vn -0.12383002 0.99199769 -2.4631321e-2
vn 0.74080056 0.59754317 0.30684964
vn -0.12383002 0.99199769 2.4631321e-2
vn 0.80183674 0.59754317 -3.0695708e-16
vn -0.10497802 0.99199769 7.0144069e-2
vn 0.74080056 0.59754317 -0.30684964
vn -7.0144069e-2 0.99199769 0.10497802
vn 0.56698420 0.59754317 -0.56698420
vn -2.4631321e-2 0.99199769 0.12383002
vn 0.30684964 0.59754317 -0.74080056
vn 2.4631321e-2 0.99199769 0.12383002
vn -1.4224840e-16 0.59754317 -0.80183674
vn 7.0144069e-2 0.99199769 0.10497802
vn -0.30684964 0.59754317 -0.74080056
vn 0.10497802 0.99199769 7.0144069e-2
vn -0.56698420 0.59754317 -0.56698420
vn 0.12383002 0.99199769 2.4631321e-2
vn -0.74080056 0.59754317 -0.30684964
vn 0.12383002 0.99199769 -2.4631321e-2
vn -0.80183674 0.59754317 1.0481461e-16
vn 0.10497802 0.99199769 -7.0144069e-2
vn -0.74080056 0.59754317 0.30684964
vn 7.0144069e-2 0.99199769 -0.10497802
vn -0.56698420 0.59754317 0.56698420
vn 2.4631321e-2 0.99199769 -0.12383002
vn -0.30684964 0.59754317 0.74080056
vn -2.4631321e-2 0.99199769 -0.12383002
vn 2.1711598e-16 0.59754317 0.80183674
vn -7.0144069e-2 0.99199769 -0.10497802
vn 0.30684964 0.59754317 0.74080056
vn -0.10497802 0.99199769 -7.0144069e-2
vn 0.56698420 0.59754317 0.56698420
vn -0.41139694 0.90777535 -8.1831939e-2
vn -0.41939163 0.90780541 2.6132795e-15
vn -0.41139694 0.90777535 8.1831939e-2
vn -0.38746734 0.90780541 0.16049423
vn -0.34876548 0.90777535 0.23303765
vn -0.29655467 0.90780541 0.29655467
vn -0.23303765 0.90777535 0.34876548
vn -0.16049423 0.90780541 0.38746734
vn -8.1831939e-2 0.90777535 0.41139694
vn 2.1837990e-17 0.90780541 0.41939163
vn 8.1831939e-2 0.90777535 0.41139694
vn 0.16049423 0.90780541 0.38746734
vn 0.23303765 0.90777535 0.34876548
vn 0.29655467 0.90780541 0.29655467
vn 0.34876548 0.90777535 0.23303765
vn 0.38746734 0.90780541 0.16049423
vn 0.41139694 0.90777535 8.1831939e-2
vn 0.41939163 0.90780541 2.3196798e-15
vn 0.41139694 0.90777535 -8.1831939e-2
vn 0.38746734 0.90780541 -0.16049423
vn 0.34876548 0.90777535 -0.23303765
vn 0.29655467 0.90780541 -0.29655467
vn 0.23303765 0.90777535 -0.34876548
vn 0.16049423 0.90780541 -0.38746734
vn 8.1831939e-2 0.90777535 -0.41139694
vn 9.7057733e-18 0.90780541 -0.41939163
vn -8.1831939e-2 0.90777535 -0.41139694
vn -0.16049423 0.90780541 -0.38746734
vn -0.23303765 0.90777535 -0.34876548
vn -0.29655467 0.90780541 -0.29655467
vn -0.34876548 0.90777535 -0.23303765
vn -0.38746734 0.90780541 -0.16049423
g cylinder1_default
usemtl default
s 1
f 1//1 17//17 32//32 16//16
f 1//1 34//34 65//65 33//33 2//2
f 2//2 18//18 17//17 1//1
f 2//2 33//33 80//80 48//48 3//3
f 3//3 19//19 18//18 2//2
f 3//3 48//48 79//79 47//47 4//4
f 4//4 5//5 21//21 20//20
f 4//4 20//20 19//19 3//3
f 5//5 6//6 22//22 21//21
f 6//6 7//7 23//23 22//22
f 7//7 44//44 75//75 43//43 8//8
f 8//8 9//9 25//25 24//24
f 8//8 24//24 23//23 7//7
f 9//9 10//10 26//26 25//25
f 10//10 11//11 27//27 26//26
f 11//11 12//12 28//28 27//27
f 12//12 13//13 29//29 28//28
f 13//13 14//14 30//30 29//29
f 14//14 15//15 31//31 30//30
f 15//15 16//16 32//32 31//31
f 16//16 35//35 66//66 34//34 1//1
f 18//18 19//19 20//20 21//21 22//22 23//23 24//24 25//25 26//26 27//27 28//28 29//29 30//30 31//31 32//32 17//17
f 33//33 82//82 112//112 48//48 80//80
f 34//34 84//84 82//82 33//33 65//65
f 35//35 86//86 84//84 34//34 66//66
f 36//36 88//88 86//86 35//35 67//67
f 37//37 90//90 88//88 36//36 68//68
f 38//38 92//92 90//90 37//37 69//69
f 39//39 94//94 92//92 38//38 70//70
f 40//40 96//96 94//94 39//39 71//71
f 41//41 98//98 96//96 40//40 72//72
f 42//42 100//100 98//98 41//41 73//73
f 43//43 102//102 100//100 42//42 74//74
f 44//44 104//104 102//102 43//43 75//75
f 45//45 106//106 104//104 44//44 76//76
f 46//46 108//108 106//106 45//45 77//77
f 47//47 110//110 108//108 46//46 78//78
f 48//48 112//112 110//110 47//47 79//79
f 49//49 144//144 143//143 111//111
f 50//50 114//114 113//113 81//81
f 51//51 116//116 115//115 83//83
f 52//52 118//118 117//117 85//85
f 53//53 120//120 119//119 87//87
f 54//54 122//122 121//121 89//89
f 55//55 124//124 123//123 91//91
f 56//56 126//126 125//125 93//93
f 57//57 128//128 127//127 95//95
f 58//58 130//130 129//129 97//97
f 59//59 132//132 131//131 99//99
f 60//60 134//134 133//133 101//101
f 61//61 136//136 135//135 103//103
f 62//62 138//138 137//137 105//105
f 63//63 140//140 139//139 107//107
f 64//64 142//142 141//141 109//109
f 67//67 35//35 16//16 15//15 36//36
f 68//68 36//36 15//15 14//14 37//37
f 69//69 37//37 14//14 13//13 38//38
f 70//70 38//38 13//13 12//12 39//39
f 71//71 39//39 12//12 11//11 40//40
f 72//72 40//40 11//11 10//10 41//41
f 73//73 41//41 10//10 9//9 42//42
f 74//74 42//42 9//9 8//8 43//43
f 76//76 44//44 7//7 6//6 45//45
f 77//77 45//45 6//6 5//5 46//46
f 78//78 46//46 5//5 4//4 47//47
f 81//81 49//49 82//82 84//84 50//50
f 81//81 113//113 144//144 49//49
f 83//83 50//50 84//84 86//86 51//51
f 83//83 115//115 114//114 50//50
f 85//85 51//51 86//86 88//88 52//52
f 85//85 117//117 116//116 51//51
f 87//87 52//52 88//88 90//90 53//53
f 87//87 119//119 118//118 52//52
f 89//89 53//53 90//90 92//92 54//54
f 89//89 121//121 120//120 53//53
f 91//91 54//54 92//92 94//94 55//55
f 91//91 123//123 122//122 54//54
f 93//93 55//55 94//94 96//96 56//56
f 93//93 125//125 124//124 55//55
f 95//95 56//56 96//96 98//98 57//57
f 95//95 127//127 126//126 56//56
f 97//97 57//57 98//98 100//100 58//58
f 97//97 129//129 128//128 57//57
f 99//99 58//58 100//100 102//102 59//59
f 99//99 131//131 130//130 58//58
f 101//101 59//59 102//102 104//104 60//60
f 101//101 133//133 132//132 59//59
f 103//103 60//60 104//104 106//106 61//61
f 103//103 135//135 134//134 60//60
f 105//105 61//61 106//106 108//108 62//62
f 105//105 137//137 136//136 61//61
f 107//107 62//62 108//108 110//110 63//63
f 107//107 139//139 138//138 62//62
f 109//109 63//63 110//110 112//112 64//64
f 109//109 141//141 140//140 63//63
f 111//111 64//64 112//112 82//82 49//49
f 111//111 143//143 142//142 64//64
f 114//114 115//115 116//116 117//117 118//118 119//119 120//120 121//121 122//122 123//123 124//124 125//125 126//126 127//127 128//128 129//129 130//130 131//131 132//132 133//133 134//134 135//135 136//136 137//137 138//138 139//139 140//140 141//141 142//142 143//143 144//144 113//113
